{"failedCount":0,"prefixedPath":"classpath:com\/api\/automation\/getrequest\/getrequest.feature","packageQualifiedName":"com.api.automation.getrequest.getrequest","loopIndex":-1,"relativePath":"com\/api\/automation\/getrequest\/getrequest.feature","scenarioResults":[{"sectionIndex":0,"stepResults":[{"result":{"nanos":643400,"millis":0.6434,"status":"passed"},"step":{"background":true,"line":4,"prefix":"Given","index":0,"text":"url 'https:\/\/reqres.in\/api'"},"stepLog":"13:06:10.414 karate.env system property was: null \n"},{"result":{"nanos":934800,"millis":0.9348,"status":"passed"},"step":{"background":true,"line":5,"prefix":"And","index":1,"text":"print '===== Background Keyword ===='"},"stepLog":"13:06:10.435 [print] ===== Background Keyword ==== \n"},{"result":{"nanos":234400,"millis":0.2344,"status":"passed"},"step":{"line":8,"prefix":"Given","index":0,"text":"path '\/users?page=2'"}},{"result":{"nanos":263800,"millis":0.2638,"status":"passed"},"step":{"line":9,"prefix":"And","index":1,"text":"header Accept = 'application\/json'"}},{"result":{"nanos":247267700,"millis":247.2677,"status":"passed"},"step":{"line":10,"prefix":"When","index":2,"text":"method get"},"stepLog":"13:06:10.567 request:\n1 > GET https:\/\/reqres.in\/api\/users%3Fpage=2\n1 > Accept: application\/json\n1 > Host: reqres.in\n1 > Connection: Keep-Alive\n1 > User-Agent: Apache-HttpClient\/4.5.13 (Java\/11.0.19)\n1 > Accept-Encoding: gzip,deflate\n\n\n13:06:10.666 response time in milliseconds: 97\n1 < 200\n1 < Date: Mon, 24 Apr 2023 11:06:11 GMT\n1 < Content-Type: application\/json; charset=utf-8\n1 < Transfer-Encoding: chunked\n1 < Connection: keep-alive\n1 < X-Powered-By: Express\n1 < Access-Control-Allow-Origin: *\n1 < Etag: W\/\"2c1-N6Rqerxquq2kgQhL51EiSg4x0R8\"\n1 < Via: 1.1 vegur\n1 < Cache-Control: max-age=14400\n1 < CF-Cache-Status: HIT\n1 < Age: 553\n1 < Report-To: {\"endpoints\":[{\"url\":\"https:\\\/\\\/a.nel.cloudflare.com\\\/report\\\/v3?s=D1U%2BzhCv4DRBbSCa0xI6RVA9f6qVRo1PDrCy%2Fvv%2BaN60SSS0n%2F06aqDBcuchaH5Qm%2FMXmEe02SsMyJPY%2BdoT3aq7xspuRN6ScP2LM7nTOdGpYmCh7NKA%2FlP9%2Fw%3D%3D\"}],\"group\":\"cf-nel\",\"max_age\":604800}\n1 < NEL: {\"success_fraction\":0,\"report_to\":\"cf-nel\",\"max_age\":604800}\n1 < Vary: Accept-Encoding\n1 < Server: cloudflare\n1 < CF-RAY: 7bcde01fbc9847f7-CPT\n{\"page\":1,\"per_page\":6,\"total\":12,\"total_pages\":2,\"data\":[{\"id\":1,\"name\":\"cerulean\",\"year\":2000,\"color\":\"#98B2D1\",\"pantone_value\":\"15-4020\"},{\"id\":2,\"name\":\"fuchsia rose\",\"year\":2001,\"color\":\"#C74375\",\"pantone_value\":\"17-2031\"},{\"id\":3,\"name\":\"true red\",\"year\":2002,\"color\":\"#BF1932\",\"pantone_value\":\"19-1664\"},{\"id\":4,\"name\":\"aqua sky\",\"year\":2003,\"color\":\"#7BC4C4\",\"pantone_value\":\"14-4811\"},{\"id\":5,\"name\":\"tigerlily\",\"year\":2004,\"color\":\"#E2583E\",\"pantone_value\":\"17-1456\"},{\"id\":6,\"name\":\"blue turquoise\",\"year\":2005,\"color\":\"#53B0AE\",\"pantone_value\":\"15-5217\"}],\"support\":{\"url\":\"https:\/\/reqres.in\/#support-heading\",\"text\":\"To keep ReqRes free, contributions towards server costs are appreciated!\"}}\n\n"},{"result":{"nanos":19500,"millis":0.0195,"status":"passed"},"step":{"line":11,"prefix":"Then","index":3,"text":"status 200"}},{"result":{"nanos":4114100,"millis":4.1141,"status":"passed"},"step":{"line":12,"prefix":"And","index":4,"text":"print response"},"stepLog":"13:06:10.687 [print] {\n  \"page\": 1,\n  \"per_page\": 6,\n  \"total\": 12,\n  \"total_pages\": 2,\n  \"data\": [\n    {\n      \"id\": 1,\n      \"name\": \"cerulean\",\n      \"year\": 2000,\n      \"color\": \"#98B2D1\",\n      \"pantone_value\": \"15-4020\"\n    },\n    {\n      \"id\": 2,\n      \"name\": \"fuchsia rose\",\n      \"year\": 2001,\n      \"color\": \"#C74375\",\n      \"pantone_value\": \"17-2031\"\n    },\n    {\n      \"id\": 3,\n      \"name\": \"true red\",\n      \"year\": 2002,\n      \"color\": \"#BF1932\",\n      \"pantone_value\": \"19-1664\"\n    },\n    {\n      \"id\": 4,\n      \"name\": \"aqua sky\",\n      \"year\": 2003,\n      \"color\": \"#7BC4C4\",\n      \"pantone_value\": \"14-4811\"\n    },\n    {\n      \"id\": 5,\n      \"name\": \"tigerlily\",\n      \"year\": 2004,\n      \"color\": \"#E2583E\",\n      \"pantone_value\": \"17-1456\"\n    },\n    {\n      \"id\": 6,\n      \"name\": \"blue turquoise\",\n      \"year\": 2005,\n      \"color\": \"#53B0AE\",\n      \"pantone_value\": \"15-5217\"\n    }\n  ],\n  \"support\": {\n    \"url\": \"https:\/\/reqres.in\/#support-heading\",\n    \"text\": \"To keep ReqRes free, contributions towards server costs are appreciated!\"\n  }\n}\n \n"}],"executorName":"main","line":7,"name":"Get application data in JSON format","description":"","durationMillis":253.4777,"startTime":1682334370311,"failed":false,"refId":"[1:7]","endTime":1682334370688,"exampleIndex":-1},{"sectionIndex":1,"stepResults":[{"result":{"nanos":200600,"millis":0.2006,"status":"passed"},"step":{"background":true,"line":4,"prefix":"Given","index":0,"text":"url 'https:\/\/reqres.in\/api'"},"stepLog":"13:06:10.696 karate.env system property was: null \n"},{"result":{"nanos":288000,"millis":0.288,"status":"passed"},"step":{"background":true,"line":5,"prefix":"And","index":1,"text":"print '===== Background Keyword ===='"},"stepLog":"13:06:10.697 [print] ===== Background Keyword ==== \n"},{"result":{"nanos":269300,"millis":0.2693,"status":"passed"},"step":{"line":15,"prefix":"Given","index":0,"text":"path '\/users\/2'"}},{"result":{"nanos":28690500,"millis":28.6905,"status":"passed"},"step":{"line":16,"prefix":"When","index":1,"text":"method get"},"stepLog":"13:06:10.698 request:\n1 > GET https:\/\/reqres.in\/api\/users\/2\n1 > Host: reqres.in\n1 > Connection: Keep-Alive\n1 > User-Agent: Apache-HttpClient\/4.5.13 (Java\/11.0.19)\n1 > Accept-Encoding: gzip,deflate\n\n\n13:06:10.725 response time in milliseconds: 27\n1 < 200\n1 < Date: Mon, 24 Apr 2023 11:06:11 GMT\n1 < Content-Type: application\/json; charset=utf-8\n1 < Transfer-Encoding: chunked\n1 < Connection: keep-alive\n1 < X-Powered-By: Express\n1 < Access-Control-Allow-Origin: *\n1 < Etag: W\/\"118-pbdwwFo9SKNhD3Lx5iHJyngpq00\"\n1 < Via: 1.1 vegur\n1 < Cache-Control: max-age=14400\n1 < CF-Cache-Status: HIT\n1 < Age: 7200\n1 < Report-To: {\"endpoints\":[{\"url\":\"https:\\\/\\\/a.nel.cloudflare.com\\\/report\\\/v3?s=GbeKsMfJtwAF2r8MKwmk7tdhrnl8417k%2B0yzqFietxxqHIRLjTzcz8ypEEQGd%2FfdZToPsHVCxP1j33%2FKZKbckuTYM2yeBUjb%2BCF1XLyynzznAdcD3h%2B3ETd78A%3D%3D\"}],\"group\":\"cf-nel\",\"max_age\":604800}\n1 < NEL: {\"success_fraction\":0,\"report_to\":\"cf-nel\",\"max_age\":604800}\n1 < Vary: Accept-Encoding\n1 < Server: cloudflare\n1 < CF-RAY: 7bcde0201c7c0704-CPT\n{\"data\":{\"id\":2,\"email\":\"janet.weaver@reqres.in\",\"first_name\":\"Janet\",\"last_name\":\"Weaver\",\"avatar\":\"https:\/\/reqres.in\/img\/faces\/2-image.jpg\"},\"support\":{\"url\":\"https:\/\/reqres.in\/#support-heading\",\"text\":\"To keep ReqRes free, contributions towards server costs are appreciated!\"}}\n\n"},{"result":{"nanos":5800,"millis":0.0058,"status":"passed"},"step":{"line":17,"prefix":"Then","index":2,"text":"status 200"}},{"result":{"nanos":507500,"millis":0.5075,"status":"passed"},"step":{"line":18,"prefix":"And","index":3,"text":"print response"},"stepLog":"13:06:10.727 [print] {\n  \"data\": {\n    \"id\": 2,\n    \"email\": \"janet.weaver@reqres.in\",\n    \"first_name\": \"Janet\",\n    \"last_name\": \"Weaver\",\n    \"avatar\": \"https:\/\/reqres.in\/img\/faces\/2-image.jpg\"\n  },\n  \"support\": {\n    \"url\": \"https:\/\/reqres.in\/#support-heading\",\n    \"text\": \"To keep ReqRes free, contributions towards server costs are appreciated!\"\n  }\n}\n \n"},{"result":{"nanos":14229000,"millis":14.229,"status":"passed"},"step":{"endLine":34,"line":19,"prefix":"And","docString":"{\n\"data\": {\n\"id\": 2,\n\"email\": \"janet.weaver@reqres.in\",\n\"first_name\": \"Janet\",\n\"last_name\": \"Weaver\",\n\"avatar\": \"https:\/\/reqres.in\/img\/faces\/2-image.jpg\"\n},\n\"support\": {\n\"url\": \"https:\/\/reqres.in\/#support-heading\",\n\"text\": \"To keep ReqRes free, contributions towards server costs are appreciated!\"\n}\n}","index":4,"text":"match response =="}}],"executorName":"main","line":14,"name":"Get application data in JSON format","description":"","durationMillis":44.1907,"startTime":1682334370694,"failed":false,"refId":"[2:14]","endTime":1682334370741,"exampleIndex":-1},{"sectionIndex":2,"stepResults":[{"result":{"nanos":143400,"millis":0.1434,"status":"passed"},"step":{"background":true,"line":4,"prefix":"Given","index":0,"text":"url 'https:\/\/reqres.in\/api'"},"stepLog":"13:06:10.746 karate.env system property was: null \n"},{"result":{"nanos":289300,"millis":0.2893,"status":"passed"},"step":{"background":true,"line":5,"prefix":"And","index":1,"text":"print '===== Background Keyword ===='"},"stepLog":"13:06:10.747 [print] ===== Background Keyword ==== \n"},{"result":{"nanos":311800,"millis":0.3118,"status":"passed"},"step":{"line":37,"prefix":"Given","index":0,"text":"path '\/users\/7'"}},{"result":{"nanos":19753900,"millis":19.7539,"status":"passed"},"step":{"line":38,"prefix":"When","index":1,"text":"method get"},"stepLog":"13:06:10.748 request:\n1 > GET https:\/\/reqres.in\/api\/users\/7\n1 > Host: reqres.in\n1 > Connection: Keep-Alive\n1 > User-Agent: Apache-HttpClient\/4.5.13 (Java\/11.0.19)\n1 > Accept-Encoding: gzip,deflate\n\n\n13:06:10.767 response time in milliseconds: 19\n1 < 200\n1 < Date: Mon, 24 Apr 2023 11:06:11 GMT\n1 < Content-Type: application\/json; charset=utf-8\n1 < Transfer-Encoding: chunked\n1 < Connection: keep-alive\n1 < X-Powered-By: Express\n1 < Access-Control-Allow-Origin: *\n1 < Etag: W\/\"11c-Esb3aX7LcoAMUKcF3i6bvWwxqls\"\n1 < Via: 1.1 vegur\n1 < Cache-Control: max-age=14400\n1 < CF-Cache-Status: HIT\n1 < Age: 552\n1 < Report-To: {\"endpoints\":[{\"url\":\"https:\\\/\\\/a.nel.cloudflare.com\\\/report\\\/v3?s=9ORkZBTuFCFQneHSCq54flk%2Be8fM7pzlx7B8zOAIiEgwAFEdCw%2FkaCrJFoHFmeyvHxfcXAsJUCeMyx8gBHj91kvvRnYjiacKQzyMX79XXL1iE77%2BofnAGQ3eNQ%3D%3D\"}],\"group\":\"cf-nel\",\"max_age\":604800}\n1 < NEL: {\"success_fraction\":0,\"report_to\":\"cf-nel\",\"max_age\":604800}\n1 < Vary: Accept-Encoding\n1 < Server: cloudflare\n1 < CF-RAY: 7bcde0206fb50714-CPT\n{\"data\":{\"id\":7,\"email\":\"michael.lawson@reqres.in\",\"first_name\":\"Michael\",\"last_name\":\"Lawson\",\"avatar\":\"https:\/\/reqres.in\/img\/faces\/7-image.jpg\"},\"support\":{\"url\":\"https:\/\/reqres.in\/#support-heading\",\"text\":\"To keep ReqRes free, contributions towards server costs are appreciated!\"}}\n\n"},{"result":{"nanos":5200,"millis":0.0052,"status":"passed"},"step":{"line":39,"prefix":"Then","index":2,"text":"status 200"}},{"result":{"nanos":462800,"millis":0.4628,"status":"passed"},"step":{"line":40,"prefix":"And","index":3,"text":"print response"},"stepLog":"13:06:10.768 [print] {\n  \"data\": {\n    \"id\": 7,\n    \"email\": \"michael.lawson@reqres.in\",\n    \"first_name\": \"Michael\",\n    \"last_name\": \"Lawson\",\n    \"avatar\": \"https:\/\/reqres.in\/img\/faces\/7-image.jpg\"\n  },\n  \"support\": {\n    \"url\": \"https:\/\/reqres.in\/#support-heading\",\n    \"text\": \"To keep ReqRes free, contributions towards server costs are appreciated!\"\n  }\n}\n \n"},{"result":{"nanos":538300,"millis":0.5383,"status":"passed"},"step":{"line":41,"prefix":"And","index":4,"text":"match response contains deep {\"data\":{\"first_name\":\"Michael\"} }"}}],"executorName":"main","line":36,"name":"Get application data in JSON format","description":"","durationMillis":21.5047,"startTime":1682334370745,"failed":false,"refId":"[3:36]","endTime":1682334370769,"exampleIndex":-1}],"callDepth":0,"name":"Test get endpoint","description":"","resultDate":"2023-04-24 01:06:10 PM","durationMillis":319.1731,"passedCount":3}